Lab2/simulation/qsim/LogicalStep_Lab2.msim.vcd
$comment
	File created using the following command:
		vcd file LogicalStep_Lab2.msim.vcd -direction
$end
$date
	Tue Jun 05 15:33:59 2018
$end
$version
	ModelSim Version 10.4b
$end
$timescale
	1ps
$end

$scope module LogicalStep_Lab2_top_vlg_vec_tst $end
$var reg 1 ! clkin_50 $end
$var reg 4 " pb [3:0] $end
$var reg 8 # sw [7:0] $end
$var wire 1 $ leds [7] $end
$var wire 1 % leds [6] $end
$var wire 1 & leds [5] $end
$var wire 1 ' leds [4] $end
$var wire 1 ( leds [3] $end
$var wire 1 ) leds [2] $end
$var wire 1 * leds [1] $end
$var wire 1 + leds [0] $end
$var wire 1 , seg7_char1 $end
$var wire 1 - seg7_char2 $end
$var wire 1 . seg7_data [6] $end
$var wire 1 / seg7_data [5] $end
$var wire 1 0 seg7_data [4] $end
$var wire 1 1 seg7_data [3] $end
$var wire 1 2 seg7_data [2] $end
$var wire 1 3 seg7_data [1] $end
$var wire 1 4 seg7_data [0] $end

$scope module i1 $end
$var wire 1 5 gnd $end
$var wire 1 6 vcc $end
$var wire 1 7 unknown $end
$var tri1 1 8 devclrn $end
$var tri1 1 9 devpor $end
$var tri1 1 : devoe $end
$var wire 1 ; ~QUARTUS_CREATED_GND~I_combout $end
$var wire 1 < ~QUARTUS_CREATED_UNVM~~busy $end
$var wire 1 = ~QUARTUS_CREATED_ADC1~~eoc $end
$var wire 1 > seg7_data[1]~output_o $end
$var wire 1 ? seg7_data[5]~output_o $end
$var wire 1 @ seg7_data[6]~output_o $end
$var wire 1 A leds[0]~output_o $end
$var wire 1 B leds[1]~output_o $end
$var wire 1 C leds[2]~output_o $end
$var wire 1 D leds[3]~output_o $end
$var wire 1 E leds[4]~output_o $end
$var wire 1 F leds[5]~output_o $end
$var wire 1 G leds[6]~output_o $end
$var wire 1 H leds[7]~output_o $end
$var wire 1 I seg7_data[0]~output_o $end
$var wire 1 J seg7_data[2]~output_o $end
$var wire 1 K seg7_data[3]~output_o $end
$var wire 1 L seg7_data[4]~output_o $end
$var wire 1 M seg7_char1~output_o $end
$var wire 1 N seg7_char2~output_o $end
$var wire 1 O pb[3]~input_o $end
$var wire 1 P sw[7]~input_o $end
$var wire 1 Q sw[3]~input_o $end
$var wire 1 R sw[2]~input_o $end
$var wire 1 S sw[6]~input_o $end
$var wire 1 T sw[5]~input_o $end
$var wire 1 U sw[1]~input_o $end
$var wire 1 V sw[4]~input_o $end
$var wire 1 W sw[0]~input_o $end
$var wire 1 X sum[0]~1 $end
$var wire 1 Y sum[1]~3 $end
$var wire 1 Z sum[2]~5 $end
$var wire 1 [ sum[3]~7 $end
$var wire 1 \ Add0~0_combout $end
$var wire 1 ] INST4|hex_out[4]~0_combout $end
$var wire 1 ^ INST4|hex_out[5]~1_combout $end
$var wire 1 _ INST4|hex_out[6]~2_combout $end
$var wire 1 ` INST4|hex_out[7]~3_combout $end
$var wire 1 a INST2|Mux5~0_combout $end
$var wire 1 b clkin_50~input_o $end
$var wire 1 c clkin_50~inputclkctrl_outclk $end
$var wire 1 d INST3|clk_proc:COUNT[0]~0_combout $end
$var wire 1 e INST3|clk_proc:COUNT[0]~q $end
$var wire 1 f INST3|clk_proc:COUNT[1]~1_combout $end
$var wire 1 g INST3|clk_proc:COUNT[1]~q $end
$var wire 1 h INST3|clk_proc:COUNT[1]~2 $end
$var wire 1 i INST3|clk_proc:COUNT[2]~1_combout $end
$var wire 1 j INST3|clk_proc:COUNT[2]~q $end
$var wire 1 k INST3|clk_proc:COUNT[2]~2 $end
$var wire 1 l INST3|clk_proc:COUNT[3]~1_combout $end
$var wire 1 m INST3|clk_proc:COUNT[3]~q $end
$var wire 1 n INST3|clk_proc:COUNT[3]~2 $end
$var wire 1 o INST3|clk_proc:COUNT[4]~1_combout $end
$var wire 1 p INST3|clk_proc:COUNT[4]~q $end
$var wire 1 q INST3|clk_proc:COUNT[4]~2 $end
$var wire 1 r INST3|clk_proc:COUNT[5]~1_combout $end
$var wire 1 s INST3|clk_proc:COUNT[5]~q $end
$var wire 1 t INST3|clk_proc:COUNT[5]~2 $end
$var wire 1 u INST3|clk_proc:COUNT[6]~1_combout $end
$var wire 1 v INST3|clk_proc:COUNT[6]~q $end
$var wire 1 w INST3|clk_proc:COUNT[6]~2 $end
$var wire 1 x INST3|clk_proc:COUNT[7]~1_combout $end
$var wire 1 y INST3|clk_proc:COUNT[7]~q $end
$var wire 1 z INST3|clk_proc:COUNT[7]~2 $end
$var wire 1 { INST3|clk_proc:COUNT[8]~1_combout $end
$var wire 1 | INST3|clk_proc:COUNT[8]~q $end
$var wire 1 } INST3|clk_proc:COUNT[8]~2 $end
$var wire 1 ~ INST3|clk_proc:COUNT[9]~1_combout $end
$var wire 1 !! INST3|clk_proc:COUNT[9]~q $end
$var wire 1 "! INST3|clk_proc:COUNT[9]~2 $end
$var wire 1 #! INST3|clk_proc:COUNT[10]~1_combout $end
$var wire 1 $! INST3|clk_proc:COUNT[10]~q $end
$var wire 1 %! sum[0]~0_combout $end
$var wire 1 &! INST4|hex_out[0]~4_combout $end
$var wire 1 '! sum[1]~2_combout $end
$var wire 1 (! INST4|hex_out[1]~5_combout $end
$var wire 1 )! sum[3]~6_combout $end
$var wire 1 *! INST4|hex_out[3]~7_combout $end
$var wire 1 +! sum[2]~4_combout $end
$var wire 1 ,! INST4|hex_out[2]~6_combout $end
$var wire 1 -! INST1|Mux5~0_combout $end
$var wire 1 .! INST3|DOUT_TEMP[1]~0_combout $end
$var wire 1 /! INST2|Mux1~0_combout $end
$var wire 1 0! INST1|Mux1~0_combout $end
$var wire 1 1! INST3|DOUT_TEMP[5]~1_combout $end
$var wire 1 2! INST1|Mux0~0_combout $end
$var wire 1 3! INST2|Mux0~0_combout $end
$var wire 1 4! INST3|DOUT_TEMP[6]~2_combout $end
$var wire 1 5! pb[1]~input_o $end
$var wire 1 6! pb[2]~input_o $end
$var wire 1 7! pb[0]~input_o $end
$var wire 1 8! INST5|Mux3~1_combout $end
$var wire 1 9! INST6|hex_out[1]~0_combout $end
$var wire 1 :! INST5|Mux3~0_combout $end
$var wire 1 ;! INST5|Mux3~2_combout $end
$var wire 1 <! INST6|hex_out[1]~3_combout $end
$var wire 1 =! INST6|hex_out[1]~2_combout $end
$var wire 1 >! INST6|hex_out[1]~4_combout $end
$var wire 1 ?! INST6|hex_out[1]~1_combout $end
$var wire 1 @! INST6|hex_out[1]~14_combout $end
$var wire 1 A! INST6|hex_out[1]~15_combout $end
$var wire 1 B! INST6|hex_out[2]~5_combout $end
$var wire 1 C! INST6|hex_out[2]~6_combout $end
$var wire 1 D! INST6|hex_out[2]~12_combout $end
$var wire 1 E! INST6|hex_out[2]~13_combout $end
$var wire 1 F! INST6|hex_out[3]~7_combout $end
$var wire 1 G! INST6|hex_out[3]~8_combout $end
$var wire 1 H! INST6|hex_out[3]~10_combout $end
$var wire 1 I! INST6|hex_out[3]~11_combout $end
$var wire 1 J! INST6|hex_out[4]~9_combout $end
$var wire 1 K! INST2|Mux6~0_combout $end
$var wire 1 L! INST1|Mux6~0_combout $end
$var wire 1 M! INST3|DOUT[0]~0_combout $end
$var wire 1 N! INST1|Mux4~0_combout $end
$var wire 1 O! INST2|Mux4~0_combout $end
$var wire 1 P! INST3|DOUT[2]~2_combout $end
$var wire 1 Q! INST1|Mux3~0_combout $end
$var wire 1 R! INST2|Mux3~0_combout $end
$var wire 1 S! INST3|DOUT[3]~3_combout $end
$var wire 1 T! INST2|Mux2~0_combout $end
$var wire 1 U! INST1|Mux2~0_combout $end
$var wire 1 V! INST3|DOUT[4]~4_combout $end
$upscope $end
$upscope $end
$enddefinitions $end
#0
$dumpvars
x!
b0 "
b0 #
0+
0*
0)
0(
0'
0&
0%
0$
0,
1-
14
z3
12
11
10
z/
0.
05
16
x7
18
19
1:
0;
z<
z=
z>
z?
0@
0A
0B
0C
0D
0E
0F
0G
0H
1I
1J
1K
1L
0M
1N
0O
0P
0Q
0R
0S
0T
0U
0V
0W
0X
1Y
0Z
1[
0\
0]
0^
0_
0`
0a
xb
xc
1d
0e
0f
0g
0h
0i
0j
1k
0l
0m
0n
0o
0p
1q
0r
0s
0t
0u
0v
1w
0x
0y
0z
0{
0|
1}
0~
0!!
0"!
0#!
0$!
0%!
0&!
0'!
0(!
0)!
0*!
0+!
0,!
0-!
1.!
0/!
00!
11!
02!
03!
04!
05!
06!
07!
18!
09!
0:!
0;!
1<!
0=!
0>!
0?!
0@!
0A!
0B!
0C!
0D!
0E!
0F!
0G!
0H!
0I!
0J!
0K!
0L!
0M!
0N!
0O!
0P!
0Q!
0R!
0S!
0T!
0U!
0V!
$end
#10000
b1 #
1W
1%!
1&!
1;!
1A
1U!
1Q!
1L!
10!
1+
1V!
1S!
1M!
01!
0?
0I
0K
0L
00
01
04
0/
#20000
b11 #
b10 #
1U
0W
1'!
0%!
1>!
1(!
0&!
0;!
0A
1@!
0U!
0Q!
1N!
0L!
12!
0+
0V!
0S!
1P!
0M!
1A!
14!
z@
1B
1I
0J
1K
1L
10
11
02
14
1*
z.
#30000
b11 #
1W
1%!
1&!
1;!
1A
1U!
0N!
1+
1V!
0P!
1J
0L
00
12
#40000
b111 #
b101 #
b100 #
1R
0U
0W
1+!
0'!
0%!
1C!
1,!
0>!
0(!
0&!
0;!
0A
1D!
1Q!
1L!
00!
0@!
0+
0A!
0B
1S!
1M!
0*
1E!
11!
z?
1C
0I
0K
01
04
1)
z/
#50000
b10100 #
b1 "
b10101 #
1V
1W
17!
1:!
1X
1'!
1>!
1(!
1@!
0U!
0Q!
0L!
1-!
0V!
0S!
0M!
1A!
0.!
0>
1B
1I
1K
1L
10
11
14
1*
03
#60000
b10111 #
b10110 #
1U
0W
0Y
0'!
0X
1%!
1Z
0+!
0>!
0(!
1Y
1'!
1&!
1;!
1A
1)!
0C!
0,!
0@!
1U!
0Z
1+!
1>!
1(!
1+
0A!
0B
1G!
1*!
0D!
10!
0-!
1V!
0)!
1C!
1,!
1@!
0*
0E!
0C
0L
1H!
0U!
1Q!
1N!
00!
1-!
0G!
0*!
1D!
00
0)
01!
1.!
1A!
1B
z>
0?
0V!
1S!
1P!
0H!
1U!
0N!
02!
10!
0-!
0/
z3
1*
11!
0.!
1E!
1C
0>
z?
0J
0K
1L
1V!
0P!
10
01
02
z/
03
1)
04!
01!
1.!
z>
0?
0@
1J
0L
00
12
0.
0/
z3
#70000
b10111 #
1W
1X
0%!
0Y
0'!
0&!
0;!
0A
1Z
0+!
0>!
0(!
0U!
0Q!
12!
00!
1-!
0+
1)!
0C!
0,!
0@!
1U!
1Q!
1L!
0-!
0V!
0S!
0A!
14!
11!
0.!
0>
z?
z@
0B
1K
1L
1G!
1*!
0D!
0U!
0Q!
0L!
02!
1V!
1S!
1M!
10
11
0*
z.
z/
03
0E!
1.!
z>
0C
0I
0K
0L
1H!
12!
0V!
0S!
0M!
00
01
04
0)
z3
04!
0@
1I
1K
1L
10
11
14
0.
1I!
14!
z@
1D
1(
z.
#80000
b11111 #
b11011 #
b11001 #
b11000 #
1Q
0R
0U
0W
0[
0)!
0Z
1+!
1Y
1'!
0X
1%!
1\
0G!
0*!
1[
1)!
1C!
1,!
0+!
1>!
1(!
0'!
1&!
1;!
1A
1]
0H!
1U!
1Q!
02!
10!
0\
1G!
1*!
1D!
0C!
0,!
1@!
0>!
0(!
1+
1J!
0I!
0D
1E
1T!
1R!
1K!
1/!
1V!
1S!
0]
1H!
0Q!
12!
00!
0D!
0@!
1'
0(
04!
01!
0J!
0E
0?
0@
0K
0L
0S!
0T!
0R!
0K!
0/!
00
01
0.
0/
0'
11!
1I!
14!
z@
1D
z?
1K
11
z/
1(
z.
#90000
b11001 #
1W
1X
0%!
1'!
0&!
0;!
0A
1>!
1(!
0U!
0+
1@!
1Q!
0V!
1L
1S!
10
1A!
1B
0K
01
1*
#100000
b111001 #
b11 "
b101001 #
b10 "
b101011 #
b101010 #
1T
0V
1U
0W
15!
07!
0Y
0:!
0X
1+!
0'!
1C!
1,!
0>!
0(!
1D!
0Q!
1N!
1L!
10!
1-!
0@!
0S!
1P!
1M!
1E!
01!
0.!
0A!
0B
0>
0?
1C
0I
0J
1K
11
02
04
1)
0/
03
0*
#110000
b101011 #
1W
1%!
1&!
1;!
1A
0N!
0-!
1+
0P!
1.!
z>
1J
12
z3
#120000
b101111 #
b101101 #
b101100 #
1R
0U
0W
1Z
0+!
1Y
1'!
0%!
0[
0)!
0C!
0,!
0Z
1+!
1>!
1(!
0&!
0;!
0A
1\
0G!
0*!
0D!
1Q!
0L!
00!
1[
1)!
1C!
1,!
1@!
0+
0E!
0C
1]
0H!
0Q!
1-!
1S!
0M!
0\
1G!
1*!
1D!
0)
1J!
0I!
11!
1A!
1B
z?
0D
1E
1I
0K
1T!
1R!
1K!
1/!
0S!
0]
1H!
1N!
01
14
1'
0(
z/
1*
0.!
0J!
1E!
1C
0E
0>
1K
0T!
0R!
0K!
0/!
1P!
11
03
0'
1)
1I!
1D
0J
02
1(
#130000
b101101 #
1W
1%!
1&!
1;!
1A
1Q!
1+
1S!
0K
01
#140000
b101111 #
b101110 #
1U
0W
0Y
0'!
0%!
1Z
0+!
0>!
0(!
0&!
0;!
0A
0[
0)!
0C!
0,!
0@!
0Q!
1L!
10!
0+
1\
0G!
0*!
0D!
0N!
0L!
00!
0-!
0S!
1M!
0E!
0A!
01!
0?
0B
0C
0I
1K
1]
0H!
02!
0P!
0M!
11
04
0)
0*
0/
1J!
0I!
11!
1.!
z>
z?
0D
1E
1I
1J
1T!
1R!
1K!
1/!
12
14
1'
0(
z/
z3
04!
0@
0.
#150000
b111110 #
b11 "
b111111 #
1V
1W
17!
1X
1F!
1B!
1'!
1>!
1(!
1@!
1N!
12!
10!
1A!
1B
1P!
1*
14!
01!
0?
z@
0J
02
z.
0/
#160000
b110111 #
b110011 #
b110001 #
b110000 #
0Q
0R
0U
0W
0F!
1[
1)!
0B!
0Z
1+!
1=!
0'!
0X
1%!
1G!
0\
1*!
1C!
0)!
1,!
0>!
0(!
1Y
1'!
1&!
1;!
1A
1H!
0]
0N!
1L!
1D!
0G!
0*!
0@!
0+!
1>!
1(!
1+
0J!
0E
0T!
0R!
0K!
0/!
0P!
1M!
0H!
1U!
1Q!
0L!
02!
0C!
0,!
1@!
0'
1E!
1C
0I
1J
1V!
1S!
0M!
0D!
0Q!
12!
12
04
1)
04!
0E!
0C
0@
1I
0K
0L
0S!
00
01
14
0.
0)
14!
z@
1K
11
z.
#170000
b110001 #
1W
1X
0%!
0Y
0'!
0&!
0;!
0A
1+!
0>!
0(!
0U!
1N!
0+
1C!
1,!
0@!
0N!
02!
00!
0V!
1P!
0J
1L
1D!
1U!
1Q!
1L!
12!
0P!
10
02
0A!
04!
11!
z?
0@
0B
1J
1V!
1S!
1M!
12
0*
0.
z/
1E!
14!
z@
1C
0I
0K
0L
00
01
04
1)
z.
#180000
b110011 #
b110010 #
1U
0W
0=!
1'!
0X
1%!
1>!
1(!
0'!
1&!
1;!
1A
1@!
0L!
02!
10!
0>!
0(!
1+
1A!
1B
0M!
0@!
0Q!
12!
00!
1-!
1*
04!
01!
0?
0@
1I
0S!
14
0.
0/
0A!
14!
11!
0.!
0>
z?
z@
0B
1K
11
0*
z.
z/
03
#190000
b110011 #
1W
1X
0%!
1'!
0&!
0;!
0A
1>!
1(!
1Q!
1L!
0-!
0+
1@!
0U!
0Q!
0L!
1-!
1S!
1M!
1A!
1.!
z>
1B
0I
0K
0V!
0S!
0M!
01
04
1*
z3
0.!
0>
1I
1K
1L
10
11
14
03
#200000
b1110011 #
b111 "
b1010011 #
b101 "
b1000011 #
b100 "
b1000111 #
b1000101 #
b1000100 #
1S
0T
0V
1R
0U
0W
16!
05!
07!
1Z
1Y
0X
1)!
0+!
0'!
1G!
1*!
0C!
0,!
0>!
0(!
1H!
0-!
0D!
0@!
0A!
0B
0*
1I!
1.!
0E!
0C
z>
1D
1(
z3
0)
#210000
b1000101 #
1W
1%!
1&!
1;!
1A
1U!
1+
1V!
0L
00
#220000
b1000111 #
b1000110 #
1U
0W
1'!
0%!
1>!
1(!
0&!
0;!
0A
1@!
0U!
1Q!
0+
0V!
1S!
1A!
1B
0K
1L
10
01
1*
#230000
b1000111 #
1W
1%!
1&!
1;!
1A
0Q!
1L!
1-!
1+
0S!
1M!
0.!
0>
0I
1K
11
04
03
#240000
b1001111 #
b1001011 #
b1001001 #
b1001000 #
1Q
0R
0U
0W
0[
0)!
0Z
1+!
0'!
0%!
1\
0G!
0*!
1[
1)!
1C!
1,!
0>!
0(!
0&!
0;!
0A
1]
0H!
1U!
1Q!
0-!
0\
1G!
1*!
1D!
0@!
0+
1J!
0I!
0A!
0B
0D
1E
1T!
1R!
1K!
1/!
1V!
1S!
0]
1H!
0U!
0Q!
1N!
10!
1-!
1'
0(
0*
1.!
0J!
1E!
1C
0E
z>
0K
0L
0V!
0S!
0T!
0R!
0K!
0/!
1P!
00
01
z3
0'
1)
01!
1I!
0.!
0>
1D
0?
0J
1K
1L
10
11
02
0/
1(
03
#250000
b1011000 #
b101 "
b1011001 #
1V
1W
17!
1:!
1X
1'!
1>!
1(!
1@!
0L!
00!
0M!
1A!
11!
z?
1B
1I
14
1*
z/
#260000
b1011011 #
b1011010 #
1U
0W
0Y
0'!
0X
1%!
1Z
0+!
0>!
0(!
1Y
1'!
1&!
1;!
1A
0[
0)!
0C!
0,!
0@!
0N!
1L!
10!
0-!
0Z
1+!
1>!
1(!
1+
0A!
0B
1\
0G!
0*!
0D!
00!
1-!
0P!
1M!
1[
1)!
1C!
1,!
1@!
0*
01!
1.!
z>
0?
0I
1J
1]
0H!
1U!
1Q!
0L!
02!
10!
0-!
0\
1G!
1*!
1D!
12
04
0/
z3
1J!
0I!
11!
0.!
1A!
1B
0>
z?
0D
1E
1T!
1R!
1K!
1/!
1V!
1S!
0M!
0]
1H!
0U!
1N!
12!
00!
1-!
1'
0(
z/
03
1*
04!
01!
1.!
0J!
0E
z>
0?
0@
1I
0K
0L
0V!
0T!
0R!
0K!
0/!
1P!
00
01
14
0.
0/
z3
0'
11!
1I!
14!
0.!
0>
z@
1D
z?
0J
1L
10
02
z/
1(
z.
03
#270000
b1011011 #
1W
1X
0%!
0Y
0'!
0&!
0;!
0A
1Z
0+!
0>!
0(!
0Q!
0+
0[
0)!
0C!
0,!
0@!
1L!
10!
0S!
0A!
0B
1K
1\
0G!
0*!
0D!
0N!
0L!
00!
0-!
1M!
11
0*
01!
0?
0I
1]
0H!
02!
0P!
0M!
04
0/
1J!
0I!
0E!
11!
1.!
z>
z?
0C
0D
1E
1I
1J
1T!
1R!
1K!
1/!
12
14
1'
0(
0)
z/
z3
04!
0@
0.
#280000
b1011111 #
b1011101 #
b1011100 #
1R
0U
0W
1+!
1Y
1'!
0X
1%!
1C!
1,!
0+!
1>!
1(!
0'!
1&!
1;!
1A
1D!
1U!
1Q!
10!
0C!
0,!
1@!
0>!
0(!
1+
1E!
1C
1V!
1S!
0D!
1L!
0@!
1)
01!
0?
0K
0L
1M!
00
01
0/
0E!
0C
0I
04
0)
#290000
b1011101 #
1W
1X
0%!
1'!
0&!
0;!
0A
1>!
1(!
0U!
0Q!
0L!
00!
0+
1@!
1N!
12!
10!
0V!
0S!
0M!
11!
z?
1I
1K
1L
1P!
10
11
14
z/
1A!
14!
01!
0?
z@
1B
0J
02
1*
z.
0/
#300000
b1111101 #
b111 "
b1101101 #
b110 "
b1101111 #
b1101110 #
1T
0V
1U
0W
15!
07!
0Y
0:!
0X
1+!
0'!
1C!
1,!
0>!
0(!
1D!
1U!
1Q!
0N!
1L!
00!
0@!
1V!
1S!
0P!
1M!
1E!
11!
0A!
0B
z?
1C
0I
1J
0K
0L
00
01
12
04
1)
z/
0*
#310000
b1101111 #
1W
1%!
1&!
1;!
1A
0Q!
0L!
1-!
1+
0S!
0M!
0.!
0>
1I
1K
11
14
03
#320000
b1100111 #
b1100011 #
b1100001 #
b1100000 #
0Q
0R
0U
0W
1[
1)!
0+!
1Y
1'!
0%!
0\
1G!
1*!
0C!
0,!
0Z
1+!
1>!
1(!
0&!
0;!
0A
0]
1H!
0U!
1Q!
0-!
0D!
0)!
1C!
1,!
1@!
0+
0J!
0E
0T!
0R!
0K!
0/!
0V!
1S!
0G!
0*!
1D!
0Q!
1N!
1-!
0'
1I!
1.!
0E!
1A!
1B
0C
z>
1D
0K
1L
0S!
0H!
0N!
1P!
10
01
1(
z3
0)
1*
0I!
1E!
0.!
0>
1C
0D
0J
1K
0P!
11
02
0(
1)
03
1J
12
#330000
b1100001 #
1W
1%!
1&!
1;!
1A
1U!
1Q!
02!
10!
0-!
1+
1V!
1S!
04!
01!
1.!
z>
0?
0@
0K
0L
00
01
0.
0/
z3
#340000
b1100011 #
b1100010 #
1U
0W
0Y
0'!
0%!
1Z
0+!
0>!
0(!
0&!
0;!
0A
1)!
0C!
0,!
0@!
1L!
12!
00!
0+
1G!
1*!
0D!
0U!
0Q!
0L!
02!
1M!
0A!
14!
11!
z?
z@
0B
0I
1H!
12!
0V!
0S!
0M!
04
0*
z.
z/
0E!
04!
0@
0C
1I
1K
1L
10
11
14
0)
0.
1I!
14!
z@
1D
1(
z.
#350000
b1110010 #
b111 "
b1110011 #
1V
1W
17!
1X
1B!
1'!
1>!
1(!
1@!
1Q!
1A!
1B
1S!
1*
0K
01
#360000
b1110111 #
b1110101 #
b1110100 #
1R
0U
0W
0B!
1+!
1=!
0'!
0X
1%!
1C!
1,!
0>!
0(!
1Y
1'!
1&!
1;!
1A
1D!
0Q!
1L!
10!
0@!
0+!
1>!
1(!
1+
1E!
1C
0S!
1M!
0C!
0,!
1@!
1Q!
1N!
0L!
00!
1-!
1)
01!
0?
0I
1K
0D!
0Q!
0N!
1L!
1S!
1P!
0M!
11
04
0/
11!
0.!
0>
z?
1I
0J
0K
0S!
0P!
1M!
01
02
14
z/
03
0E!
0C
0I
1J
1K
11
12
04
0)
#370000
b1110101 #
1W
1X
0%!
0Y
0'!
0&!
0;!
0A
1+!
0>!
0(!
1Q!
0L!
0-!
0+
1C!
1,!
0@!
0Q!
1S!
0M!
1.!
z>
1I
0K
1D!
1N!
1L!
10!
1-!
0S!
01
14
z3
1E!
0A!
0B
1C
1K
1P!
1M!
11
1)
0*
01!
0.!
0>
0?
0I
0J
02
04
0/
03
#380000
b1110111 #
b1110110 #
1U
0W
0=!
1'!
0X
1%!
1>!
1(!
0'!
1&!
1;!
1A
1@!
1Q!
0L!
00!
0>!
0(!
1+
1A!
1B
1S!
0M!
0@!
0Q!
0N!
1L!
10!
0-!
1*
11!
z?
1I
0K
0S!
0P!
1M!
01
14
z/
0A!
01!
1.!
z>
0?
0B
0I
1J
1K
11
12
04
0*
0/
z3
#390000
b1110111 #
1W
1X
0%!
1'!
0&!
0;!
0A
1>!
1(!
1N!
1-!
0+
1@!
0L!
00!
1P!
1A!
0.!
0>
1B
0J
0M!
02
1*
03
11!
z?
1I
14
z/
#400000
b11110111 #
b1111 "
b10110111 #
b1011 "
b10010111 #
b1001 "
b10011111 #
b10001111 #
b1000 "
b10001011 #
b10001001 #
b10001000 #
1P
0S
0T
0V
1Q
0R
0U
0W
1O
06!
05!
07!
1`
0[
0Z
1Y
0X
0,!
0(!
0<!
08!
13!
1\
0)!
0+!
0'!
0N!
0-!
0G!
0C!
0>!
0P!
0H!
0D!
0@!
1.!
0E!
0A!
0B
0C
z>
1J
12
z3
0)
0*
0I!
0D
0(
#410000
b10001001 #
1W
1&!
1%!
1U!
1V!
0L
00
#420000
b10001011 #
b10001010 #
1U
0W
1(!
1'!
0&!
0%!
0U!
1Q!
0V!
1S!
0K
1L
10
01
#430000
b10001011 #
1W
1&!
1%!
0Q!
1L!
1-!
0S!
1M!
0.!
0>
0I
1K
11
04
03
#440000
b10001111 #
b10001101 #
b10001100 #
1R
0U
0W
1,!
1+!
0(!
0'!
0&!
0%!
1N!
10!
1P!
01!
0?
0J
02
0/
#450000
b10011100 #
b1001 "
b10011101 #
1V
1W
17!
1:!
1]
1X
1&!
1T!
1'!
0N!
0-!
0P!
1.!
z>
1J
12
z3
#460000
b10011111 #
b10011110 #
1U
0W
1(!
0Y
0'!
0&!
0X
1%!
1N!
0L!
00!
1-!
1Z
0+!
1Y
1'!
1P!
0M!
1)!
0Z
1+!
11!
0.!
0>
z?
1I
0J
0)!
02
14
z/
03
#470000
b10011111 #
1W
1&!
1X
0%!
1Q!
0Y
0'!
1S!
1Z
0+!
0K
1)!
01
#480000
b10010111 #
b10010011 #
b10010001 #
b10010000 #
0Q
0R
0U
0W
0*!
0)!
0,!
0Z
1+!
0(!
1Y
1'!
0&!
0X
1%!
0Q!
0N!
02!
0-!
1[
1)!
0+!
0'!
0S!
0P!
0\
04!
1.!
z>
0@
1J
1K
11
12
0.
z3
#490000
b10010001 #
1W
1&!
1X
0%!
1U!
1Q!
1L!
10!
1'!
1V!
1S!
1M!
01!
0?
0I
0K
0L
00
01
04
0/
#500000
b10110001 #
b1011 "
b10100001 #
b1010 "
b10100011 #
b10100010 #
1T
0V
1U
0W
15!
07!
1^
0Y
0:!
0]
0X
1(!
0&!
0T!
1R!
1+!
0'!
0U!
0Q!
1N!
0L!
12!
0V!
0S!
1P!
0M!
14!
z@
1I
0J
1K
1L
10
11
02
14
z.
#510000
b10100011 #
1W
1&!
1%!
1U!
0N!
1V!
0P!
1J
0L
00
12
#520000
b10100111 #
b10100101 #
b10100100 #
1R
0U
0W
1,!
1Z
0+!
0(!
1Y
1'!
0&!
0%!
1Q!
1L!
00!
0[
0)!
0Z
1+!
1S!
1M!
1\
1[
1)!
11!
z?
0I
0K
0\
01
04
z/
#530000
b10100101 #
1W
1&!
1%!
0Q!
0L!
1-!
0S!
0M!
0.!
0>
1I
1K
11
14
03
#540000
b10100111 #
b10100110 #
1U
0W
1(!
0Y
0'!
0&!
0%!
0U!
1Z
0+!
0V!
0[
0)!
1L
1\
10
#550000
b10110110 #
b1011 "
b10110111 #
1V
1W
17!
1]
1X
1&!
1F!
1B!
18!
0R!
1K!
1a
1'!
1U!
1Q!
02!
10!
0-!
1G!
1C!
1S!
1V!
1H!
1D!
1.!
04!
01!
1I!
1D
0?
0@
z>
0L
0K
01
00
z3
0.
0/
1(
1E!
1C
1)
#560000
b10111111 #
b10111011 #
b10111001 #
b10111000 #
1Q
0R
0U
0W
0F!
1*!
1)!
0B!
0,!
0Z
1+!
1=!
0(!
0'!
0&!
0X
1%!
0G!
0U!
0Q!
12!
00!
0C!
0)!
1>!
1Y
1'!
1;!
1A
0H!
0V!
0S!
0D!
1@!
0+!
1+
14!
11!
0E!
1A!
1B
0C
z?
z@
1K
1L
10
11
z.
z/
0)
1*
0I!
0D
0(
#570000
b10111001 #
1W
1&!
1X
0%!
1U!
0Y
0'!
0;!
0A
1V!
1+!
0+
0L
00
#580000
b10111011 #
b10111010 #
1U
0W
0=!
1(!
1'!
0&!
0X
1%!
0>!
0U!
1Q!
0'!
1;!
1A
0@!
0V!
1S!
1+
0K
1L
10
01
0A!
0B
0*
#590000
b10111011 #
1W
1&!
1X
0%!
0Q!
1L!
1-!
1'!
0;!
0A
0S!
1M!
0+
0.!
0>
0I
1K
11
04
03
#600000
b11111011 #
b1111 "
b11011011 #
b1101 "
b11001011 #
b1100 "
b11001111 #
b11001101 #
b11001100 #
1S
0T
0V
1R
0U
0W
16!
05!
07!
1_
1Z
0^
1Y
0]
0X
1,!
0(!
0&!
1?!
19!
08!
1O!
1/!
1)!
0+!
0'!
1N!
10!
1H!
1D!
1G!
1C!
1>!
1P!
0H!
0D!
01!
1I!
1E!
1C
1D
0?
0J
02
0/
1(
1)
0I!
0E!
0C
0D
0(
0)
#610000
b11001101 #
1W
1&!
1%!
0N!
0-!
0P!
1.!
z>
1J
12
z3
#620000
b11001111 #
b11001110 #
1U
0W
1(!
1'!
0&!
0%!
1N!
0L!
00!
1-!
1P!
0M!
11!
0.!
0>
z?
1I
0J
02
14
z/
03
#630000
b11001111 #
1W
1&!
1%!
1Q!
1S!
0K
01
#640000
b11000111 #
b11000011 #
b11000001 #
b11000000 #
0Q
0R
0U
0W
0*!
0)!
0,!
0Z
1+!
0(!
0'!
0&!
0%!
0Q!
0N!
02!
0-!
1[
1)!
0S!
0P!
0\
04!
1.!
z>
0@
1J
1K
11
12
0.
z3
#650000
b11010000 #
b1101 "
b11010001 #
1V
1W
17!
1:!
1]
1X
1&!
1I!
1E!
1C
1D
0O!
0a
1'!
1U!
1Q!
1L!
10!
1(
1)
1;!
1A
1V!
1S!
1M!
1+
01!
0?
0I
0K
0L
00
01
04
0/
#660000
b11010011 #
b11010010 #
1U
0W
1@!
1(!
0Y
0'!
0&!
0X
1%!
0U!
0Q!
1N!
0L!
12!
1Z
0+!
1Y
1'!
1A!
1B
0V!
0S!
1P!
0M!
0[
0)!
0Z
1+!
1*
14!
z@
1I
0J
1K
1L
1\
1[
1)!
10
11
02
14
z.
0\
#670000
b11010011 #
1W
1&!
1X
0%!
1U!
0N!
0Y
0'!
1V!
0P!
1Z
0+!
1J
0L
0[
0)!
00
12
1\
#680000
b11010111 #
b11010101 #
b11010100 #
1R
0U
0W
1D!
1,!
1+!
0@!
0(!
1Y
1'!
0&!
0X
1%!
1Q!
1L!
00!
0+!
0'!
0A!
0B
1S!
1M!
0*
11!
z?
0I
0K
01
04
z/
#690000
b11010101 #
1W
1&!
1X
0%!
0Q!
0L!
1-!
1'!
0S!
0M!
0.!
0>
1I
1K
11
14
03
